{
    "count": 1415,
    "next": "https://api.spaceflightnewsapi.net/v4/reports/?limit=10&offset=10",
    "previous": null,
    "results": [
        {
            "id": 1662,
            "title": "Starliner arrives safely back on Earth",
            "url": "https://starlinerupdates.com/starliner-arrives-safely-back-on-earth/",
            "image_url": "https://boeing-jtti.s3.amazonaws.com/wp-content/uploads/2023/02/13165520/docking_with_earth_in_background_out_window.png",
            "news_site": "Boeing",
            "summary": "Boeing’s Starliner landed safely at 12:01 a.m. Eastern time on Saturday, Sept. 7 (1o:01 p.m. Mountain time, on Friday, Sept. 6).  After an extended stay at the International Space Station, Starliner’s reusable crew module touched down at its designated landing site, White Sands Space Harbor at the U.S. Army’s White Sands Missile Range in New [&#8230;]",
            "published_at": "2024-09-07T04:14:32Z",
            "updated_at": "2024-09-07T04:18:06.656360Z"
        },
        {
            "id": 1661,
            "title": "Starliner heads back to Earth",
            "url": "https://starlinerupdates.com/starliner-heads-back-to-earth/",
            "image_url": "https://boeing-jtti.s3.amazonaws.com/wp-content/uploads/2023/02/13165520/docking_with_earth_in_background_out_window.png",
            "news_site": "Boeing",
            "summary": "Boeing’s Starliner spacecraft undocked from the International Space Station on Friday, Sept. 6, with separation confirmed at 6:04 p.m. Eastern time. The reusable crew module is expected to land at 12:01 a.m. Eastern time (10:01 p.m. Mountain time) Saturday at White Sands Space Harbor at the U.S. Army’s White Sands Missile Range in New Mexico. [&#8230;]",
            "published_at": "2024-09-06T22:05:02Z",
            "updated_at": "2024-09-06T22:08:02.942704Z"
        },
        {
            "id": 1660,
            "title": "Boeing’s confidence remains high in Starliner’s return with crew",
            "url": "https://starlinerupdates.com/boeings-confidence-remains-high-in-starliners-return-with-crew/",
            "image_url": "https://boeing-jtti.s3.amazonaws.com/wp-content/uploads/2023/02/13165520/docking_with_earth_in_background_out_window.png",
            "news_site": "Boeing",
            "summary": "Since Starliner’s Crew Flight Test (CFT) launch on June 5, Boeing and NASA have conducted extensive testing of its propulsion system in space and on the ground. Those tests include: 7 ground tests of a Reaction Control System (RCS) thruster pulled from the Starliner-1 Service Module: 1 launch-to-docking test with more than 1,000 pulses to [&#8230;]",
            "published_at": "2024-08-02T23:32:46Z",
            "updated_at": "2024-08-02T23:41:45.178189Z"
        },
        {
            "id": 1656,
            "title": "Starliner Return to Earth Preps Underway",
            "url": "https://starlinerupdates.com/starliner-return-to-earth-preps-underway/",
            "image_url": "https://boeing-jtti.s3.amazonaws.com/wp-content/uploads/2023/02/13165520/docking_with_earth_in_background_out_window.png",
            "news_site": "Boeing",
            "summary": "Practiced, prepared, checked out, refilled, and inspected – the Starliner team is proceeding through checklists to be ready for return when a date is chosen. They spent Tuesday practicing for undocking during an integrated simulation with the International Space Station. Teams occupied their consoles in the Mission Control Center in Houston and in Boeing’s Mission [&#8230;]",
            "published_at": "2024-07-31T21:41:37Z",
            "updated_at": "2024-07-31T21:41:43.819872Z"
        },
        {
            "id": 1655,
            "title": "Starliner Docked Hot Fire Testing Complete",
            "url": "https://starlinerupdates.com/starliner-docked-hot-fire-testing-complete/",
            "image_url": "https://boeing-jtti.s3.amazonaws.com/wp-content/uploads/2023/02/13165520/docking_with_earth_in_background_out_window.png",
            "news_site": "Boeing",
            "summary": "Spacecraft thrusters tested and helium system checked in second successful docked hot fire test. The Starliner team completed a docked hot fire test of the spacecraft’s Reaction Control System (RCS) thrusters Saturday afternoon, and monitored its helium system, providing additional data points for the Crew Flight Test’s return to Earth. With Starliner flight director Chloe [&#8230;]",
            "published_at": "2024-07-27T20:50:47Z",
            "updated_at": "2024-07-27T20:58:22.824314Z"
        },
        {
            "id": 1657,
            "title": "ISS Daily Summary Report – 7/26/2024",
            "url": "https://blogs.nasa.gov/stationreport/2024/07/26/iss-daily-summary-report-7-26-2024/",
            "image_url": "https://upload.wikimedia.org/wikipedia/commons/8/8a/ISS_after_completion_%28as_of_June_2006%29.jpg",
            "news_site": "NASA",
            "summary": "Boeing CST-100 Crewed Flight Test (CFT): The CFT crew continued assisting the ISS crew with various audits and housekeeping.  They also performed CloudNet Testing and STEMonstration Earth Science activities. Payloads: Sleep in Orbit: A crewmember transferred the MicroSD memory card into a Columbus Payload Laptop to allow the ground to downlink data. The Sleep in …",
            "published_at": "2024-07-26T19:21:00Z",
            "updated_at": "2024-08-01T19:21:29.070476Z"
        },
        {
            "id": 1658,
            "title": "ISS Daily Summary Report – 7/25/2024",
            "url": "https://blogs.nasa.gov/stationreport/2024/07/25/iss-daily-summary-report-7-25-2024/",
            "image_url": "https://upload.wikimedia.org/wikipedia/commons/8/8a/ISS_after_completion_%28as_of_June_2006%29.jpg",
            "news_site": "NASA",
            "summary": "Boeing CST-100 Crewed Flight Test (CFT): Today, the CFT crew performed checkouts and measurements in preparation for a future potential CFT undock. They also assisted the ISS crew in NanoRacks Airlock (NRAL) restow operations. Payloads: KIBO Robot Programming Challenge 5: Preparation activities and the Robo-Pro Challenge #5 Technical Rehearsal were performed using JEM Camera Robot …",
            "published_at": "2024-07-25T19:21:00Z",
            "updated_at": "2024-08-01T19:21:29.104232Z"
        },
        {
            "id": 1654,
            "title": "Starliner team closes in on thruster issue root cause, prepares for return to Earth",
            "url": "https://starlinerupdates.com/starliner-team-closes-in-on-thruster-issue-root-cause-prepares-for-return-to-earth/",
            "image_url": "https://boeing-jtti.s3.amazonaws.com/wp-content/uploads/2023/02/13165520/docking_with_earth_in_background_out_window.png",
            "news_site": "Boeing",
            "summary": "Thruster testing and inspections on the ground lead to meaningful findings prior to Starliner’s return. With ground testing of a Reaction Control System (RCS) thruster complete and disassembly and inspections concluding, the Starliner team is reviewing data that will aid in future missions and pave the way for NASA astronauts Butch Wilmore and Suni Williams [&#8230;]",
            "published_at": "2024-07-25T19:18:32Z",
            "updated_at": "2024-07-25T19:27:53.327743Z"
        },
        {
            "id": 1659,
            "title": "ISS Daily Summary Report – 7/24/2024",
            "url": "https://blogs.nasa.gov/stationreport/2024/07/24/iss-daily-summary-report-7-24-2024/",
            "image_url": "https://upload.wikimedia.org/wikipedia/commons/8/8a/ISS_after_completion_%28as_of_June_2006%29.jpg",
            "news_site": "NASA",
            "summary": "Boeing CST-100 Crewed Flight Test (CFT): Today, the CFT crew assisted the ISS crew by installing the ArgUS 1-1 Multi Payload Platform in the NanoRacks Airlock (NRAL).  They also assisted the ISS crew in the Butterfly iQ Scans and stowage management in the Columbus Module. Payloads: ArgUS 1-1: The assembled ArgUS 1-1 plate was installed …",
            "published_at": "2024-07-24T19:21:00Z",
            "updated_at": "2024-08-01T19:21:29.115267Z"
        },
        {
            "id": 1653,
            "title": "ISS Daily Summary Report – 7/23/2024",
            "url": "https://blogs.nasa.gov/stationreport/2024/07/23/iss-daily-summary-report-7-23-2024/",
            "image_url": "https://upload.wikimedia.org/wikipedia/commons/8/8a/ISS_after_completion_%28as_of_June_2006%29.jpg",
            "news_site": "NASA",
            "summary": "Boeing CST-100 Crewed Flight Test (CFT): The CFT crew assisted the ISS crew by performing payload activities. They completed the ArgUS 1-1 sub-payloads installation and several Thor-Davis sessions. Payloads: ArgUS 1-1: The ArgUS 1-1 sub-payloads were installed onto the ArgUS Multi Payload Platform and stowed in the NanoRacks Airlock (NRAL). More information about this investigation …",
            "published_at": "2024-07-23T15:57:00Z",
            "updated_at": "2024-07-24T15:57:38.477496Z"
        }
    ]
}